…
We then use the `map` function in the `purrr` package to read in all of the files and store them in a list object named `mycsv`.  The first argument to `map` is a list (here, `files`) which is "piped in" using `%>%` from the `magrittr` package [@magrittr]. Pipes (`%>%`) provide a way to execute a sequence of data operations, organized so that the operations can be read from left to right (e.g., "Take this set of files and then read them in using `read_csv`"). The second argument to `map` is a function, in this case `read_csv`, to be applied to the list. The `map` function iterates over the two files stored in the `files` object, reads in the data files and then stores them in a new list named `mycsv.` We use `~` to refer to our function and use `.x` to refer to the list object that is passed to the function as an additional argument.   


```r
# Read both CSV files
mycsv <- files %>% 
  map(~ read_csv(file.path(filesfolder, .x)))

# Inspect how the data sets look like
mycsv 
```

```
## [[1]]
## # A tibble: 112,323 × 27
##     ...1 project_id deployment_id       image_id   filename location    is_blank
##    <dbl>      <dbl> <chr>               <chr>      <chr>    <chr>          <dbl>
##  1     1    2000949 N23-Jan2020-Jul2020 45eab5c4-… 0219056… gs://large…        0
##  2     2    2000949 N23-Jan2020-Jul2020 03fe2e6d-… 0210041… gs://large…        0
##  3     3    2000949 N23-Jan2020-Jul2020 a0c07226-… 0216046… gs://large…        0
##  4     4    2000949 A08-Jan2020-Jul2020 810d0020-… 0115028… gs://large…        0
##  5     5    2000949 A08-Jan2020-Jul2020 d546edcc-… 0501078… gs://large…        0
##  6     6    2000949 A08-Jan2020-Jul2020 21ecd9a7-… 0608005… gs://large…        0
##  7     7    2000949 A08-Jan2020-Jul2020 aa2f7b21-… 0127084… gs://large…        0
##  8     8    2000949 A08-Jan2020-Jul2020 b4920b3e-… 0607005… gs://large…        0
##  9     9    2000949 N12-Jan2020-Jul2020 151a52ac-… 0615081… gs://large…        0
## 10    10    2000949 N12-Jan2020-Jul2020 897bbf5d-… 0529065… gs://large…        0
## # … with 112,313 more rows, and 20 more variables: identified_by <chr>,
## #   wi_taxon_id <chr>, class <chr>, order <chr>, family <chr>, genus <chr>,
## #   species <chr>, common_name <chr>, uncertainty <lgl>, timestamp <dttm>,
## #   age <lgl>, sex <lgl>, animal_recognizable <lgl>, individual_id <lgl>,
## #   number_of_objects <dbl>, individual_animal_notes <lgl>, highlighted <lgl>,
## #   markings <lgl>, cv_confidence <dbl>, license <chr>
## 
## [[2]]
## # A tibble: 114,237 × 27
##       X1 project_id deployment_id       image_id   filename location    is_blank
##    <dbl>      <dbl> <chr>               <chr>      <chr>    <chr>          <dbl>
##  1     1    2000949 N25-Jan2020-Jul2020 902b671f-… 0331008… gs://large…        0
##  2     2    2000949 N23-Jan2020-Jul2020 9a430206-… 0424015… gs://large…        0
##  3     3    2000949 N29-Jan2020-Jul2020 e727dc42-… 0331028… gs://large…        0
##  4     4    2000949 A06-Jan2020-Jul2020 db3c3213-… 0602047… gs://large…        0
##  5     5    2000949 A02-Jan2020-Jul2020 c7e33138-… 0310038… gs://large…        1
##  6     6    2000949 A04-Jan2020-Jul2020 52f77e0c-… 0418003… gs://large…        0
##  7     7    2000949 A06-Jan2020-Jul2020 94a5b596-… 0302034… gs://large…        0
##  8     8    2000949 A06-Jan2020-Jul2020 063c0153-… 0619014… gs://large…        0
##  9     9    2000949 A06-Jan2020-Jul2020 4b6f9c4e-… 0625031… gs://large…        0
## 10    10    2000949 A07-Jan2020-Jul2020 15c4e9f4-… 0509024… gs://large…        0
## # … with 114,227 more rows, and 20 more variables: identified_by <chr>,
## #   wi_taxon_id <chr>, class <chr>, order <chr>, family <chr>, genus <chr>,
## #   species <chr>, common_name <chr>, uncertainty <lgl>, timestamp <dttm>,
## #   age <chr>, sex <chr>, animal_recognizable <lgl>, individual_id <lgl>,
## #   number_of_objects <dbl>, individual_animal_notes <chr>, highlighted <lgl>,
## #   markings <chr>, cv_confidence <lgl>, license <chr>
```
…
