Chapter 4 MegaDetector | Guide for using artificial intelligence platforms for camera-trap data processing
…
## [1] "images_cv_jan2020.csv" "images_hv_jan2020.csv"

We then use the map function in the purrr library to read in all of the files and store them in a list object named mycsv. The first argument to map is a list (here, files) which is “piped in” using %>% from the magrittr package (Bache and Wickham 2020). Pipes (%>%) provide a way to execute a sequence of data operations, organized so that the operations can be read from left to right (e.g., “Take the set of files and then read them in using read_csv”). The second argument to map is a function, in this case read_csv, to be applied to the list. The map function iterates over the two files stored in the files object, reads in the data files and then stores them in a new list named mycsv. We use ~ to refer to our function and use .x to refer to the list object that is passed to the function as an additional argument.

# Read both CSV files
mycsv <- files %>% 
  map(~read_csv(file.path(filesfolder, .x)))

# Inspect how the data sets look like
mycsv 

## [[1]]
## # A tibble: 112,247 × 7
##    image_path               max_confidence detections max_conf_animal max_conf_person
##    <chr>                             <dbl> <lgl>                <dbl>           <dbl>
##  1 jan2020/A01/01080001.JPG          0.998 NA                  NA               0.998
##  2 jan2020/A01/01080002.JPG          0.97  NA                  NA               0.97 
##  3 jan2020/A01/01080003.JPG          0.996 NA                  NA               0.996
##  4 jan2020/A01/01080004.JPG          0.985 NA                   0.202           0.985
##  5 jan2020/A01/01080005.JPG          0.939 NA                   0.209           0.939
##  6 jan2020/A01/01080006.JPG          0.996 NA                  NA               0.996
##  7 jan2020/A01/01080007.JPG          0.999 NA                  NA               0.999
##  8 jan2020/A01/01080008.JPG          0.997 NA                  NA               0.997
##  9 jan2020/A01/01080009.JPG          0.914 NA                   0.428           0.914
## 10 jan2020/A01/01080010.JPG          0.992 NA                  NA               0.992
## # … with 112,237 more rows, and 2 more variables: max_conf_group <dbl>,
## #   max_conf_vehicle <lgl>
## 
## [[2]]
## # A tibble: 103,053 × 5
##    filename         timestamp           image_id           common_name    sp_num
##    <chr>            <dttm>              <chr>              <chr>           <dbl>
##  1 N25/03310082.JPG 2020-03-31 14:28:14 902b671f-58b9-4cb… Collared Pecc…      1
##  2 N29/03310288.JPG 2020-03-31 06:49:17 e727dc42-5ebb-46a… Collared Pecc…      1
##  3 A06/06020479.JPG 2020-06-02 08:12:17 db3c3213-5ad9-4bf… Black Agouti        1
##  4 A02/03100387.JPG 2020-03-10 06:58:27 c7e33138-08ac-461… Unknown speci…      1
##  5 A04/04180034.JPG 2020-04-18 05:37:56 52f77e0c-7023-408… Bos Species         1
##  6 A06/03020343.JPG 2020-03-02 12:00:45 94a5b596-1685-40a… Spix's Guan         1
##  7 A06/06190148.JPG 2020-06-19 11:40:33 063c0153-d8fd-46b… White-lipped …      1
##  8 A06/06250315.JPG 2020-06-25 07:08:56 4b6f9c4e-e8bb-4a9… Lowland Tapir       1
##  9 A07/05090248.JPG 2020-05-09 15:05:11 15c4e9f4-7a68-4bd… Domestic Horse      1
## 10 A09/02030454.JPG 2020-02-03 10:34:41 cb56ac06-6520-47c… Bos Species         1
## # … with 103,043 more rows
…
MD can detect and classify more than one object in an image, and each object will be assigned its own confidence value. We want to keep each of these classifications in a separate row. To do that, we first change the data set from “wide” to “long” format using the pivot_longer function (Wickham and Henry 2018). This function will create two new variables, name and value, that will hold the classification (“Human”, “Animal”, “Vehicle”, “Blank”) and associated confidence values, respectively.

cv_long <- cv_wide %>%
  select(-detections) %>% 
  pivot_longer(c("max_conf_animal",
                 "max_conf_person", 
                 "max_conf_group", 
                 "max_conf_vehicle", 
                 "max_conf_blank")) 

cv_long

## # A tibble: 561,235 × 4
##    filename                 max_confidence name              value
##    <chr>                             <dbl> <chr>             <dbl>
##  1 jan2020/A01/01080001.JPG          0.998 max_conf_animal  NA    
##  2 jan2020/A01/01080001.JPG          0.998 max_conf_person   0.998
##  3 jan2020/A01/01080001.JPG          0.998 max_conf_group   NA    
##  4 jan2020/A01/01080001.JPG          0.998 max_conf_vehicle NA    
##  5 jan2020/A01/01080001.JPG          0.998 max_conf_blank   NA    
##  6 jan2020/A01/01080002.JPG          0.97  max_conf_animal  NA    
##  7 jan2020/A01/01080002.JPG          0.97  max_conf_person   0.97 
##  8 jan2020/A01/01080002.JPG          0.97  max_conf_group   NA    
##  9 jan2020/A01/01080002.JPG          0.97  max_conf_vehicle NA    
## 10 jan2020/A01/01080002.JPG          0.97  max_conf_blank   NA    
## # … with 561,225 more rows
…
