Chapter 4 MegaDetector - Microsoft AI | Guide for using artificial intelligence systems for camera trap data processing
…
## [1] "images_cv_jan2020.csv" "images_hv_jan2020.csv"

We then use the map function in the purrr library to read in all of the files and store them in a list object named mycsv. The first argument to map is a list (here, files) which is “piped in” using %>% from the magrittr package (Bache and Wickham 2020). Pipes (%>%) provide a way to execute a sequence of data operations, organized so that the operations can be read from left to right (e.g., “Take the set of files and then read them in using read_csv”). The second argument to map is a function, in this case read_csv, to be applied to the list. The map function iterates over the two files stored in the files object, reads in the data files and then stores them in a new list named mycsv. We use ~ to refer to our function and use .x to refer to the list object that is passed to the function as an additional argument.

# Read both CSV files
mycsv <- files %>% 
  map(~read_csv(file.path(filesfolder, .x)))

# Inspect how the data sets look like
mycsv 

## [[1]]
## # A tibble: 112,247 × 7
##    image_path               max_confidence detections max_conf_animal max_conf_person
##    <chr>                             <dbl> <lgl>                <dbl>           <dbl>
##  1 jan2020/A01/01080001.JPG          0.998 NA                  NA               0.998
##  2 jan2020/A01/01080002.JPG          0.97  NA                  NA               0.97 
##  3 jan2020/A01/01080003.JPG          0.996 NA                  NA               0.996
##  4 jan2020/A01/01080004.JPG          0.985 NA                   0.202           0.985
##  5 jan2020/A01/01080005.JPG          0.939 NA                   0.209           0.939
##  6 jan2020/A01/01080006.JPG          0.996 NA                  NA               0.996
##  7 jan2020/A01/01080007.JPG          0.999 NA                  NA               0.999
##  8 jan2020/A01/01080008.JPG          0.997 NA                  NA               0.997
##  9 jan2020/A01/01080009.JPG          0.914 NA                   0.428           0.914
## 10 jan2020/A01/01080010.JPG          0.992 NA                  NA               0.992
## # … with 112,237 more rows, and 2 more variables: max_conf_group <dbl>,
## #   max_conf_vehicle <lgl>
## 
## [[2]]
## # A tibble: 104,826 × 4
##    deployment_id       filename     timestamp           common_name 
##    <chr>               <chr>        <dttm>              <chr>       
##  1 A01-Jan2020-Jul2020 01090079.JPG 2020-01-09 10:54:39 Blank       
##  2 A01-Jan2020-Jul2020 01090080.JPG 2020-01-09 10:54:40 Blank       
##  3 A01-Jan2020-Jul2020 01090081.JPG 2020-01-09 10:54:41 Blank       
##  4 A01-Jan2020-Jul2020 01090082.JPG 2020-01-09 10:54:49 Blank       
##  5 A01-Jan2020-Jul2020 01090083.JPG 2020-01-09 10:54:50 Blank       
##  6 A01-Jan2020-Jul2020 01090084.JPG 2020-01-09 10:54:51 Blank       
##  7 A01-Jan2020-Jul2020 01100085.JPG 2020-01-10 16:14:15 Black Agouti
##  8 A01-Jan2020-Jul2020 01100086.JPG 2020-01-10 16:14:16 Blank       
##  9 A01-Jan2020-Jul2020 01100087.JPG 2020-01-10 16:14:17 Black Agouti
## 10 A01-Jan2020-Jul2020 01130088.JPG 2020-01-13 08:53:39 Blank       
## # … with 104,816 more rows
…
MD can detect and classify more than one object in an picture, and each object will be assigned its own confidence value. We want to keep each of these classifications in a separate row. To do that, we first change the data set from “wide” to “long” format using the pivot_longer function (Wickham and Henry 2018). This function will create two new variables, name and value, that will hold the classification (“Human”, “Animal”, “Vehicle”, “Blank”) and associated confidence values, respectively.

cv_long <- cv_wide %>%
  select(-detections) %>% # remove the "detections" column
  pivot_longer(c("max_conf_animal",
                 "max_conf_person", 
                 "max_conf_group", 
                 "max_conf_vehicle", 
                 "max_conf_blank")) 

cv_long

## # A tibble: 561,235 × 4
##    filename                 max_confidence name              value
##    <chr>                             <dbl> <chr>             <dbl>
##  1 jan2020/A01/01080001.JPG          0.998 max_conf_animal  NA    
##  2 jan2020/A01/01080001.JPG          0.998 max_conf_person   0.998
##  3 jan2020/A01/01080001.JPG          0.998 max_conf_group   NA    
##  4 jan2020/A01/01080001.JPG          0.998 max_conf_vehicle NA    
##  5 jan2020/A01/01080001.JPG          0.998 max_conf_blank   NA    
##  6 jan2020/A01/01080002.JPG          0.97  max_conf_animal  NA    
##  7 jan2020/A01/01080002.JPG          0.97  max_conf_person   0.97 
##  8 jan2020/A01/01080002.JPG          0.97  max_conf_group   NA    
##  9 jan2020/A01/01080002.JPG          0.97  max_conf_vehicle NA    
## 10 jan2020/A01/01080002.JPG          0.97  max_conf_blank   NA    
## # … with 561,225 more rows
…
