Chapter 3 Wildlife Insights (WI) | Guide for using artificial intelligence systems for camera trap data processing
…
## [1] "images_cv_test.csv"        "images_hv_jan2020_raw.csv"

We then use the map function in the purrr package to read in all of the files and store them in a list object named mycsv. The first argument to map is a list (here, files) which is “piped in” using %>% from the magrittr package (Bache and Wickham 2020). Pipes (%>%) provide a way to execute a sequence of data operations, organized so that the operations can be read from left to right (e.g., “Take this set of files and then read them in using read_csv”). The second argument to map is a function, in this case read_csv, to be applied to the list. The map function iterates over the two files stored in the files object, reads in the data files and then stores them in a new list named mycsv. We use ~ to refer to our function and use .x to refer to the list object that is passed to the function as an additional argument.

# Read both CSV files
mycsv <- files %>% 
  map(~ read_csv(file.path(filesfolder, .x)))

# Inspect how the data sets look like
mycsv 

## [[1]]
## # A tibble: 104,235 × 25
##    project_id deployment_id image_id filename is_blank identified_by wi_taxon_id
##         <dbl> <chr>         <chr>    <chr>       <dbl> <chr>         <chr>      
##  1    2004246 A03           84c573d… A03/041…        1 Computer vis… f1856211-c…
##  2    2004246 M04           2754d55… M04/040…        1 Computer vis… f1856211-c…
##  3    2004246 M01           2a8aec6… M01/062…        0 Computer vis… 1f689929-8…
##  4    2004246 N29           1c75bdc… N29/011…        1 Computer vis… f1856211-c…
##  5    2004246 M04           e39d3ae… M04/021…        0 Computer vis… f2efdae9-e…
##  6    2004246 A07           acfa3bc… A07/021…        0 Computer vis… 3d80f1d6-b…
##  7    2004246 M01           ad80a12… M01/062…        0 Computer vis… f2d233e3-8…
##  8    2004246 N05           702a38f… N05/062…        0 Computer vis… 988b8b2d-6…
##  9    2004246 A06           473b772… A06/030…        0 Computer vis… 837e12c2-f…
## 10    2004246 M05           6534fac… M05/020…        0 Computer vis… 627c919c-2…
## # … with 104,225 more rows, and 18 more variables: class <chr>, order <chr>,
## #   family <chr>, genus <chr>, species <chr>, common_name <chr>,
## #   uncertainty <lgl>, timestamp <dttm>, number_of_objects <dbl>, age <lgl>,
## #   sex <lgl>, animal_recognizable <lgl>, individual_id <lgl>,
## #   individual_animal_notes <lgl>, highlighted <lgl>, markings <lgl>,
## #   cv_confidence <dbl>, license <chr>
## 
## [[2]]
## # A tibble: 114,237 × 27
##       X1 project_id deployment_id image_id    filename  location        is_blank
##    <dbl>      <dbl> <chr>         <chr>       <chr>     <chr>              <dbl>
##  1     1    2000949 N25           902b671f-5… N25/0331… gs://large_mam…        0
##  2     2    2000949 N23           9a430206-a… N23/0424… gs://large_mam…        0
##  3     3    2000949 N29           e727dc42-5… N29/0331… gs://large_mam…        0
##  4     4    2000949 A06           db3c3213-5… A06/0602… gs://large_mam…        0
##  5     5    2000949 A02           c7e33138-0… A02/0310… gs://large_mam…        1
##  6     6    2000949 A04           52f77e0c-7… A04/0418… gs://large_mam…        0
##  7     7    2000949 A06           94a5b596-1… A06/0302… gs://large_mam…        0
##  8     8    2000949 A06           063c0153-d… A06/0619… gs://large_mam…        0
##  9     9    2000949 A06           4b6f9c4e-e… A06/0625… gs://large_mam…        0
## 10    10    2000949 A07           15c4e9f4-7… A07/0509… gs://large_mam…        0
## # … with 114,227 more rows, and 20 more variables: identified_by <chr>,
## #   wi_taxon_id <chr>, class <chr>, order <chr>, family <chr>, genus <chr>,
## #   species <chr>, common_name <chr>, uncertainty <lgl>, timestamp <dttm>,
## #   age <chr>, sex <chr>, animal_recognizable <lgl>, individual_id <lgl>,
## #   number_of_objects <dbl>, individual_animal_notes <chr>, highlighted <lgl>,
## #   markings <chr>, cv_confidence <lgl>, license <chr>
…
